^Z:\DEVELOPMENT\C++\BATCHER\BATCHER\X64\DEBUG\BATCHER.OBJ|Z:\DEVELOPMENT\C++\BATCHER\BATCHER\X64\DEBUG\MAIN.OBJ
Z:\DEVELOPMENT\C++\BATCHER\X64\DEBUG\BATCHER.ILK
Z:\DEVELOPMENT\C++\BATCHER\X64\DEBUG\BATCHER.EXE
Z:\DEVELOPMENT\C++\BATCHER\X64\DEBUG\BATCHER.PDB
